…
    ## Warning: There was 1 warning in `mutate()`.
    ## ℹ In argument: `victim_age = as.numeric(victim_age)`.
    ## Caused by warning:
    ## ! NAs introduced by coercion

``` r
homicide
```

    ## # A tibble: 39,693 × 14
    ##    uid        reported_date victim_last  victim_first victim_race victim_age
    ##    <chr>              <dbl> <chr>        <chr>        <fct>            <dbl>
    ##  1 Alb-000003      20100601 SATTERFIELD  VIVIANA      White               15
    ##  2 Alb-000005      20100102 MULA         VIVIAN       White               72
    ##  3 Alb-000006      20100126 BOOK         GERALDINE    White               91
    ##  4 Alb-000009      20100130 MARTIN-LEYVA GUSTAVO      White               56
    ##  5 Alb-000012      20100218 LUJAN        KEVIN        White               NA
    ##  6 Alb-000016      20100308 GRAY         STEFANIA     White               43
    ##  7 Alb-000018      20100323 DAVID        LARRY        White               52
    ##  8 Alb-000019      20100402 BRITO        ELIZABETH    White               22
    ##  9 Alb-000021      20100423 KING         TEVION       Black               15
    ## 10 Alb-000022      20100423 BOYKIN       CEDRIC       Black               25
    ## # ℹ 39,683 more rows
    ## # ℹ 8 more variables: victim_sex <fct>, city <chr>, state <chr>, lat <dbl>,
    ## #   lon <dbl>, disposition <chr>, city_state <chr>, solved <int>
…
city_models
```

    ## # A tibble: 47 × 4
    ##    city_state      estimate conf.low conf.high
    ##    <chr>              <dbl>    <dbl>     <dbl>
    ##  1 Albuquerque, NM    1.77     0.825     3.76 
    ##  2 Atlanta, GA        1.00     0.680     1.46 
    ##  3 Baltimore, MD      0.426    0.324     0.558
    ##  4 Baton Rouge, LA    0.381    0.204     0.684
    ##  5 Birmingham, AL     0.870    0.571     1.31 
    ##  6 Boston, MA         0.667    0.351     1.26 
    ##  7 Buffalo, NY        0.521    0.288     0.936
    ##  8 Charlotte, NC      0.884    0.551     1.39 
    ##  9 Chicago, IL        0.410    0.336     0.501
    ## 10 Cincinnati, OH     0.400    0.231     0.667
    ## # ℹ 37 more rows
…
